<svg width="500" height="300" xmlns="http://www.w3.org/2000/svg">
 <!-- Created with Method Draw - http://github.com/duopixel/Method-Draw/ -->

 <g>
  <title>background</title>
  <rect x="-1" y="-1" width="502" height="302" id="canvas_background" fill="none"/>
  <g id="canvasGrid" display="none">
   <rect id="svg_3" width="100%" height="100%" x="0" y="0" stroke-width="0" fill="url(#gridpattern)"/>
  </g>
 </g>
 <g>
  <title>Layer 1</title>
  <rect fill="#ffffff" stroke="#999999" stroke-width="4.5" x="5" y="5.571426" width="490" height="290" id="svg_1" rx="10"/>
  <rect fill="#396849" stroke="#999999" stroke-width="4.5" x="30.499998" y="30.666667" width="375" height="175" id="svg_2"/>
  <line fill="none" stroke="#A0D58A" stroke-width="2.5" x1="54" y1="32" x2="54" y2="202" id="svg_6" stroke-linejoin="undefined" stroke-linecap="undefined"/>
  <line fill="none" stroke="#A0D58A" stroke-width="2.5" x1="74" y1="32" x2="74" y2="202" id="svg_9" stroke-linejoin="undefined" stroke-linecap="undefined"/>
  <line fill="none" stroke="#A0D58A" stroke-width="2.5" x1="94" y1="32" x2="94" y2="202" id="svg_11" stroke-linejoin="undefined" stroke-linecap="undefined"/>
  <line fill="none" stroke="#A0D58A" stroke-width="2.5" x1="114" y1="32" x2="114" y2="202" id="svg_13" stroke-linejoin="undefined" stroke-linecap="undefined"/>
  <line fill="none" stroke="#A0D58A" stroke-width="2.5" x1="134" y1="32" x2="134" y2="202" id="svg_15" stroke-linejoin="undefined" stroke-linecap="undefined"/>
  <line fill="none" stroke="#A0D58A" stroke-width="2.5" x1="154" y1="32" x2="154" y2="202" id="svg_16" stroke-linejoin="undefined" stroke-linecap="undefined"/>
  <line fill="none" stroke-width="2.5" x1="174" y1="32" x2="174" y2="202" id="svg_17" stroke-linejoin="undefined" stroke-linecap="undefined" stroke="#A0D58A"/>
  <line fill="none" stroke="#A0D58A" stroke-width="2.5" x1="194" y1="32" x2="194" y2="202" id="svg_19" stroke-linejoin="undefined" stroke-linecap="undefined"/>
  <line fill="none" stroke="#A0D58A" stroke-width="2.5" x1="238" y1="32" x2="238" y2="202" id="svg_20" stroke-linejoin="undefined" stroke-linecap="undefined"/>
  <line fill="none" stroke="#A0D58A" stroke-width="2.5" x1="258" y1="32" x2="258" y2="202" id="svg_21" stroke-linejoin="undefined" stroke-linecap="undefined"/>
  <line fill="none" stroke="#A0D58A" stroke-width="2.5" x1="278" y1="32" x2="278" y2="202" id="svg_22" stroke-linejoin="undefined" stroke-linecap="undefined"/>
  <line fill="none" stroke="#A0D58A" stroke-width="2.5" x1="298" y1="32" x2="298" y2="202" id="svg_23" stroke-linejoin="undefined" stroke-linecap="undefined"/>
  <line fill="none" stroke="#A0D58A" stroke-width="2.5" x1="318" y1="32" x2="318" y2="202" id="svg_24" stroke-linejoin="undefined" stroke-linecap="undefined"/>
  <line fill="none" stroke="#A0D58A" stroke-width="2.5" x1="338" y1="32" x2="338" y2="202" id="svg_26" stroke-linejoin="undefined" stroke-linecap="undefined"/>
  <line fill="none" stroke="#A0D58A" stroke-width="2.5" x1="358" y1="32" x2="358" y2="202" id="svg_27" stroke-linejoin="undefined" stroke-linecap="undefined"/>
  <line fill="none" stroke="#A0D58A" stroke-width="2.5" x1="378" y1="32" x2="378" y2="202" id="svg_28" stroke-linejoin="undefined" stroke-linecap="undefined"/>
  <line fill="none" stroke-width="2.5" x1="218.499951" y1="-130" x2="218.499951" y2="240" id="svg_30" stroke-linejoin="undefined" stroke-linecap="undefined" transform="rotate(90 218.4999542236328,55.00000000000002) " stroke="#A0D58A"/>
  <line fill="none" stroke-width="2.5" x1="218.499951" y1="-110" x2="218.499951" y2="263" id="svg_31" stroke-linejoin="undefined" stroke-linecap="undefined" transform="rotate(90 218.4999542236328,76.50000000000003) " stroke="#A0D58A"/>
  <line fill="none" stroke-width="2.5" x1="218.499951" y1="-88.500069" x2="218.499951" y2="284.499931" id="svg_33" stroke-linejoin="undefined" stroke-linecap="undefined" transform="rotate(90 218.49995422363284,98.00000000000001) " stroke="#A0D58A"/>
  <line fill="none" stroke-width="4" x1="217.999953" y1="-67.000138" x2="217.999953" y2="305.999862" id="svg_35" stroke-linejoin="undefined" stroke-linecap="undefined" transform="rotate(90 217.99995422363284,119.49986267089845) " stroke="#A0D58A"/>
  <line fill="none" stroke-width="2.5" x1="217.999953" y1="-45.500208" x2="217.999953" y2="327.499792" id="svg_36" stroke-linejoin="undefined" stroke-linecap="undefined" transform="rotate(90 217.9999542236328,141.00000000000003) " stroke="#A0D58A"/>
  <line fill="none" stroke-width="2.5" x1="218.499951" y1="-24.500187" x2="218.499951" y2="348.499813" id="svg_39" stroke-linejoin="undefined" stroke-linecap="undefined" transform="rotate(90 218.4999542236328,161.99958801269534) " stroke="#A0D58A"/>
  <line fill="none" stroke-width="2.5" x1="217.999953" y1="-3.000257" x2="217.999953" y2="369.999743" id="svg_40" stroke-linejoin="undefined" stroke-linecap="undefined" transform="rotate(90 217.9999542236328,183.49919128417972) " stroke="#A0D58A"/>
  <line fill="none" stroke="#A0D58A" stroke-width="4" x1="216" y1="32" x2="216" y2="202" id="svg_41" stroke-linejoin="undefined" stroke-linecap="undefined"/>
  <line fill="none" stroke="#A0D58A" stroke-width="2.5" x1="34" y1="32" x2="34" y2="202" id="svg_42" stroke-linejoin="undefined" stroke-linecap="undefined"/>
  <line fill="none" stroke="#A0D58A" stroke-width="2.5" x1="398" y1="32" x2="398" y2="202" id="svg_43" stroke-linejoin="undefined" stroke-linecap="undefined"/>
  <ellipse fill="#666666" stroke-width="6.5" cx="453" cy="97.291667" id="svg_45" rx="20" ry="20" stroke="#999999"/>
  <line fill="none" stroke="#999999" stroke-width="6.5" x1="419.999257" y1="69.678924" x2="429.7135" y2="78.250315" id="svg_47" stroke-linejoin="null" stroke-linecap="null"/>
  <line fill="none" stroke="#999999" stroke-width="6.5" x1="430.856353" y1="59.393255" x2="440.571426" y2="67.964646" id="svg_50" stroke-linejoin="null" stroke-linecap="null" transform="rotate(19.521818161010742 435.71386718749994,63.67894744873039) "/>
  <line fill="none" stroke="#999999" stroke-width="6.5" x1="446.856282" y1="55.393273" x2="456.570525" y2="63.964664" id="svg_51" stroke-linejoin="null" stroke-linecap="null" transform="rotate(46.01249694824219 451.7134094238281,59.678970336914084) "/>
  <ellipse fill="#666666" stroke-width="6.5" cx="453" cy="175.577033" id="svg_60" rx="20" ry="20" stroke="#999999"/>
  <path fill="#666666" stroke="#999999" stroke-width="2.5" d="m452.82144,163.67822l0.57142,-1.14285l0.57142,1.14285l-1.14284,0z" id="svg_61"/>
  <line fill="none" stroke="#999999" stroke-width="6.5" x1="419.999257" y1="147.964291" x2="429.7135" y2="156.535682" id="svg_62" stroke-linejoin="null" stroke-linecap="null"/>
  <line fill="none" stroke="#999999" stroke-width="6.5" x1="430.856353" y1="137.678621" x2="440.571426" y2="146.250012" id="svg_63" stroke-linejoin="null" stroke-linecap="null" transform="rotate(19.521818161010742 435.71386718749983,141.96432495117188) "/>
  <line fill="none" stroke="#999999" stroke-width="6.5" x1="446.856282" y1="133.67864" x2="456.570525" y2="142.250031" id="svg_64" stroke-linejoin="null" stroke-linecap="null" transform="rotate(46.01249694824219 451.7134094238281,137.9643249511719) "/>
  <rect fill="none" stroke-width="2.5" x="30.85811" y="215.392571" width="125.142318" height="69.71398" id="svg_70" rx="17" stroke="#999999"/>
  <text fill="#000000" stroke="#999999" stroke-width="0" stroke-opacity="null" fill-opacity="null" x="-39.427295" y="60.536107" id="svg_80" font-size="24" font-family="Helvetica, Arial, sans-serif" text-anchor="start" xml:space="preserve"/>
  <path fill="#BBBBBB" stroke="#999999" stroke-width="4.5" stroke-opacity="null" fill-opacity="null" d="m-31.83376,3.0727l0.745,-1.30375l0.745,1.30375l-1.49,0z" id="svg_81"/>
  <path fill="#999999" stroke-width="2.5" d="m65.41818,249.39649l-3.89518,-1.3994l3.13776,-7.1555c0.28016,-0.63856 -0.06404,-1.36317 -0.77143,-1.61678c-0.7074,-0.25361 -1.50685,0.05887 -1.786,0.69834l-3.13776,7.1555l-4.88274,-1.75446l3.13676,-7.1555c0.28116,-0.63946 -0.06404,-1.36407 -0.77043,-1.61768c-0.7064,-0.25271 -1.50685,0.05887 -1.786,0.69834l-3.13776,7.1555l-3.89319,-1.39849l-1.6149,3.68281l2.15121,0.77352l-2.53843,5.78871c-0.61034,1.39487 0.14308,2.97361 1.68395,3.52794l1.62691,0.58512l-0.87749,1.99901c-0.40723,0.9284 0.09505,1.9818 1.12263,2.35135l0.93052,0.33422c1.02657,0.36955 2.18923,-0.08604 2.59745,-1.01535l0.8775,-1.99901l1.85904,0.66754c1.54086,0.55342 3.28584,-0.12862 3.89818,-1.52348l2.53643,-5.78871l1.91907,0.68928l1.61391,-3.68282l-0.00001,0z" id="svg_82" stroke="#999999"/>
  <path fill="#000000" stroke="#000000" stroke-width="2.5" stroke-opacity="null" d="m-41.94135,30.74702l-0.01947,-0.00772l0.01568,-0.0395c0.0014,-0.00353 -0.00032,-0.00753 -0.00385,-0.00893c-0.00354,-0.0014 -0.00753,0.00033 -0.00893,0.00386l-0.01568,0.0395l-0.0244,-0.00969l0.01568,-0.0395c0.0014,-0.00353 -0.00032,-0.00753 -0.00385,-0.00893c-0.00353,-0.00139 -0.00753,0.00033 -0.00893,0.00386l-0.01568,0.0395l-0.01945,-0.00772l-0.00807,0.02033l0.01075,0.00427l-0.01269,0.03195c-0.00305,0.0077 0.00072,0.01642 0.00842,0.01948l0.00813,0.00323l-0.00439,0.01103c-0.00203,0.00513 0.00048,0.01094 0.00561,0.01298l0.00465,0.00185c0.00513,0.00204 0.01094,-0.00048 0.01298,-0.00561l0.00439,-0.01103l0.00929,0.00368c0.0077,0.00306 0.01642,-0.00071 0.01948,-0.00841l0.01267,-0.03195l0.00959,0.0038l0.00807,-0.02033z" id="svg_83"/>
  <rect fill="#00ff7f" stroke="#999999" stroke-width="4.5" stroke-opacity="null" x="493.713219" y="335.392042" width="0.571426" height="0.571426" id="svg_88"/>
  <ellipse fill="#31b747" stroke-width="2.5" cx="76.857909" cy="251.106698" id="svg_89" rx="6.5714" ry="6.571401" stroke="#999999"/>
  <rect fill="#ffffff" stroke-width="2.5" x="105.714924" y="236.535334" width="26.857026" height="28.571302" id="svg_90" stroke="#999999" rx="6"/>
  <rect fill="#31b747" stroke="#000000" stroke-width="2.5" x="123.429132" y="249.678133" width="0" height="4.571408" id="svg_91"/>
  <path fill="#999999" stroke-width="2.5" stroke-opacity="null" d="m121.80321,245.64301c-0.48936,-0.23831 -1.07877,-0.03369 -1.31729,0.45928c-0.23753,0.49297 -0.03252,1.08552 0.45684,1.32433c1.5351,0.75109 2.59465,2.33107 2.59366,4.16224c-0.00492,2.55352 -2.05995,4.61953 -4.59941,4.62399c-2.53995,-0.00495 -4.59497,-2.07096 -4.5999,-4.62399c-0.00099,-1.83216 1.05905,-3.41363 2.59564,-4.16324c0.49035,-0.2388 0.69388,-0.83135 0.45683,-1.32432c-0.23753,-0.49198 -0.82595,-0.69809 -1.3163,-0.45928c-2.19399,1.06768 -3.70692,3.33088 -3.70791,5.94684c0.00099,3.64846 2.94159,6.60528 6.57164,6.60627c3.62956,-0.00099 6.57066,-2.95781 6.57116,-6.60627c-0.00099,-2.61497 -1.51195,-4.87668 -3.70496,-5.94585zm-2.8662,4.87222c0.54407,0 0.98514,-0.44293 0.98514,-0.9909l0,-4.62449c0,-0.54747 -0.44107,-0.9904 -0.98514,-0.9904c-0.54505,0 -0.98562,0.44343 -0.98562,0.9904l0,4.624c0,0.54796 0.44057,0.99138 0.98562,0.99138l0,0.00001z" id="svg_93"/>
  <line fill="none" stroke="#999999" stroke-width="4.5" x1="198.285946" y1="247.963855" x2="432.570631" y2="247.392429" id="svg_98" stroke-linejoin="null" stroke-linecap="null"/>
  <path fill="#999999" stroke="#999999" stroke-width="4.5" d="m252.040314,247.70567l8.22853,-8.57137l24.68559,0l8.22856,8.57137l-8.22856,8.57139l-24.68559,0l-8.22853,-8.57139z" id="svg_97"/>
  <path fill="#666666" stroke="#999999" stroke-width="2.5" d="m452.82144,85.39285l0.57142,-1.14285l0.57142,1.14285l-1.14284,0z" id="svg_100"/>
 </g>
</svg>